<?xml version="1.0" encoding="utf-8"?>
<COLLADA xmlns="http://www.collada.org/2005/11/COLLADASchema" version="1.4.1" xmlns:xsi="http://www.w3.org/2001/XMLSchema-instance">
  <asset>
    <contributor>
      <author>Blender User</author>
      <authoring_tool>Blender 2.79.0 commit date:2018-03-22, commit time:14:10, hash:f4dc9f9</authoring_tool>
    </contributor>
    <created>2019-03-05T15:36:53</created>
    <modified>2019-03-05T15:36:53</modified>
    <unit name="meter" meter="1"/>
    <up_axis>Z_UP</up_axis>
  </asset>
  <library_cameras>
    <camera id="Camera-camera" name="Camera">
      <optics>
        <technique_common>
          <perspective>
            <xfov sid="xfov">49.13434</xfov>
            <aspect_ratio>1.777778</aspect_ratio>
            <znear sid="znear">0.1</znear>
            <zfar sid="zfar">100</zfar>
          </perspective>
        </technique_common>
      </optics>
      <extra>
        <technique profile="blender">
          <shiftx sid="shiftx" type="float">0</shiftx>
          <shifty sid="shifty" type="float">0</shifty>
          <YF_dofdist sid="YF_dofdist" type="float">0</YF_dofdist>
        </technique>
      </extra>
    </camera>
  </library_cameras>
  <library_lights>
    <light id="Lamp-light" name="Lamp">
      <technique_common>
        <point>
          <color sid="color">1 1 1</color>
          <constant_attenuation>1</constant_attenuation>
          <linear_attenuation>0</linear_attenuation>
          <quadratic_attenuation>0.00111109</quadratic_attenuation>
        </point>
      </technique_common>
      <extra>
        <technique profile="blender">
          <type sid="type" type="int">0</type>
          <flag sid="flag" type="int">0</flag>
          <mode sid="mode" type="int">8192</mode>
          <gamma sid="blender_gamma" type="float">1</gamma>
          <red sid="red" type="float">1</red>
          <green sid="green" type="float">1</green>
          <blue sid="blue" type="float">1</blue>
          <shadow_r sid="blender_shadow_r" type="float">0</shadow_r>
          <shadow_g sid="blender_shadow_g" type="float">0</shadow_g>
          <shadow_b sid="blender_shadow_b" type="float">0</shadow_b>
          <energy sid="blender_energy" type="float">1</energy>
          <dist sid="blender_dist" type="float">29.99998</dist>
          <spotsize sid="spotsize" type="float">75</spotsize>
          <spotblend sid="spotblend" type="float">0.15</spotblend>
          <halo_intensity sid="blnder_halo_intensity" type="float">1</halo_intensity>
          <att1 sid="att1" type="float">0</att1>
          <att2 sid="att2" type="float">1</att2>
          <falloff_type sid="falloff_type" type="int">2</falloff_type>
          <clipsta sid="clipsta" type="float">1.000799</clipsta>
          <clipend sid="clipend" type="float">30.002</clipend>
          <bias sid="bias" type="float">1</bias>
          <soft sid="soft" type="float">3</soft>
          <compressthresh sid="compressthresh" type="float">0.04999995</compressthresh>
          <bufsize sid="bufsize" type="int">2880</bufsize>
          <samp sid="samp" type="int">3</samp>
          <buffers sid="buffers" type="int">1</buffers>
          <filtertype sid="filtertype" type="int">0</filtertype>
          <bufflag sid="bufflag" type="int">0</bufflag>
          <buftype sid="buftype" type="int">2</buftype>
          <ray_samp sid="ray_samp" type="int">1</ray_samp>
          <ray_sampy sid="ray_sampy" type="int">1</ray_sampy>
          <ray_sampz sid="ray_sampz" type="int">1</ray_sampz>
          <ray_samp_type sid="ray_samp_type" type="int">0</ray_samp_type>
          <area_shape sid="area_shape" type="int">1</area_shape>
          <area_size sid="area_size" type="float">0.1</area_size>
          <area_sizey sid="area_sizey" type="float">0.1</area_sizey>
          <area_sizez sid="area_sizez" type="float">1</area_sizez>
          <adapt_thresh sid="adapt_thresh" type="float">0.000999987</adapt_thresh>
          <ray_samp_method sid="ray_samp_method" type="int">1</ray_samp_method>
          <shadhalostep sid="shadhalostep" type="int">0</shadhalostep>
          <sun_effect_type sid="sun_effect_type" type="int">0</sun_effect_type>
          <skyblendtype sid="skyblendtype" type="int">1</skyblendtype>
          <horizon_brightness sid="horizon_brightness" type="float">1</horizon_brightness>
          <spread sid="spread" type="float">1</spread>
          <sun_brightness sid="sun_brightness" type="float">1</sun_brightness>
          <sun_size sid="sun_size" type="float">1</sun_size>
          <backscattered_light sid="backscattered_light" type="float">1</backscattered_light>
          <sun_intensity sid="sun_intensity" type="float">1</sun_intensity>
          <atm_turbidity sid="atm_turbidity" type="float">2</atm_turbidity>
          <atm_extinction_factor sid="atm_extinction_factor" type="float">1</atm_extinction_factor>
          <atm_distance_factor sid="atm_distance_factor" type="float">1</atm_distance_factor>
          <skyblendfac sid="skyblendfac" type="float">1</skyblendfac>
          <sky_exposure sid="sky_exposure" type="float">1</sky_exposure>
          <sky_colorspace sid="sky_colorspace" type="int">0</sky_colorspace>
        </technique>
      </extra>
    </light>
  </library_lights>
  <library_images>
    <image id="MarkerData_1234_png" name="MarkerData_1234_png">
      <init_from>MarkerData_1234.png</init_from>
    </image>
  </library_images>
  <library_effects>
    <effect id="Material_001-effect">
      <profile_COMMON>
        <newparam sid="MarkerData_1234_png-surface">
          <surface type="2D">
            <init_from>MarkerData_1234_png</init_from>
          </surface>
        </newparam>
        <newparam sid="MarkerData_1234_png-sampler">
          <sampler2D>
            <source>MarkerData_1234_png-surface</source>
          </sampler2D>
        </newparam>
        <technique sid="common">
          <phong>
            <emission>
              <color sid="emission">0 0 0 1</color>
            </emission>
            <ambient>
              <color sid="ambient">0 0 0 1</color>
            </ambient>
            <diffuse>
              <texture texture="MarkerData_1234_png-sampler"/>
            </diffuse>
            <specular>
              <color sid="specular">0.5 0.5 0.5 1</color>
            </specular>
            <shininess>
              <float sid="shininess">50</float>
            </shininess>
            <index_of_refraction>
              <float sid="index_of_refraction">1</float>
            </index_of_refraction>
          </phong>
        </technique>
      </profile_COMMON>
    </effect>
  </library_effects>
  <library_materials>
    <material id="Material_001-material" name="Material_001">
      <instance_effect url="#Material_001-effect"/>
    </material>
  </library_materials>
  <library_geometries>
    <geometry id="coz_block_geo-mesh" name="coz_block_geo">
      <mesh>
        <source id="coz_block_geo-mesh-positions">
          <float_array id="coz_block_geo-mesh-positions-array" count="384">2.056166 -2.056165 -2.08399 2.056166 -1.161861 -2.08399 2.056166 -1.161861 -1.1882 2.056166 -2.056165 -1.1882 2.056166 -2.056165 2.08399 2.056166 -1.161861 2.08399 1.152302 -1.161861 2.08399 1.152302 -2.056165 2.08399 -2.056166 -2.056165 -1.1882 -2.056166 -1.161861 -1.1882 -2.056166 -1.161861 -2.08399 -2.056166 -2.056165 -2.08399 1.152302 -2.056165 -2.08399 1.152302 -1.161861 -2.08399 2.056166 2.056165 -2.08399 1.152302 2.056165 -2.08399 1.152302 2.056165 -1.1882 2.056166 2.056165 -1.1882 1.152302 -2.056165 -1.1882 -1.152302 -2.056165 2.08399 -1.152302 -1.161861 2.08399 -2.056166 -1.161861 2.08399 -2.056166 -2.056165 2.08399 -1.152302 -2.056165 -2.08399 -1.152302 -2.056165 -1.1882 -1.152302 -1.161861 -2.08399 -2.056166 2.056165 -1.1882 -1.152302 2.056165 -1.1882 -1.152302 2.056165 -2.08399 -2.056166 2.056165 -2.08399 -1.152302 -1.14828 -1.184925 1.152302 -1.14828 -1.184925 1.152302 -1.752164 -1.1882 -1.152302 -1.752164 -1.1882 -1.152302 -1.161861 -1.779988 1.152302 -1.161861 -1.779988 1.152302 1.752164 -1.1882 1.152302 1.185458 -1.192178 -1.152302 1.185458 -1.192178 -1.152302 1.752164 -1.1882 -2.056166 1.161861 -1.1882 -2.056166 1.161861 -2.08399 -1.152302 1.161861 -2.08399 1.152302 1.161861 -1.779988 -1.152302 1.161861 -1.779988 2.056166 1.161861 -2.08399 1.152302 1.161861 -2.08399 2.056166 1.161861 -1.1882 1.152302 1.161861 2.08399 2.056166 1.161861 2.08399 2.056166 2.056165 2.08399 1.152302 2.056165 2.08399 -1.152302 1.161861 2.08399 -1.152302 2.056165 2.08399 -2.056166 1.161861 2.08399 -2.056166 2.056165 2.08399 -1.752164 -1.161861 -1.1882 -1.752164 1.161861 -1.1882 -1.169887 1.161861 -1.19144 -1.169887 -1.161861 -1.19144 -1.152302 -1.161861 -1.779988 -1.152302 1.161861 -1.779988 1.135147 -1.161861 -1.187053 1.152302 -1.161861 -1.779988 1.152302 1.161861 -1.779988 1.135147 1.161861 -1.187053 1.752164 -1.161861 -1.1882 1.752164 1.161861 -1.1882 1.152302 2.056165 1.188201 1.152302 2.056165 0.834948 -1.152302 2.056165 0.834948 -1.152302 2.056165 1.188201 2.056166 2.056165 0.834948 2.056166 2.056165 1.188201 2.056166 1.161861 1.188201 2.056166 1.161861 0.834948 2.056166 -1.161861 1.188201 2.056166 -1.161861 0.834948 2.056166 -2.056165 0.834948 2.056166 -2.056165 1.188201 1.152302 -2.056165 0.834948 1.152302 -2.056165 1.188201 -1.152302 -2.056165 0.834948 -1.152302 -2.056165 1.188201 -2.056166 -2.056165 0.834948 -2.056166 -2.056165 1.188201 -2.056166 -1.161861 1.188201 -2.056166 -1.161861 0.834948 -2.056166 1.161861 1.188201 -2.056166 1.161861 0.834948 -2.056166 2.056165 1.188201 -2.056166 2.056165 0.834948 1.152302 2.056165 -0.834948 -1.152302 2.056165 -0.834948 1.098395 1.098396 -0.834948 1.152302 1.752164 -0.834948 1.152302 1.752164 0.834948 1.098395 1.098396 0.834948 1.752164 1.161861 0.834948 1.752164 1.161861 -0.834948 2.056166 -1.161861 -0.834948 2.056166 1.161861 -0.834948 1.098395 -1.098396 -0.834948 1.752164 -1.161861 -0.834948 1.752164 -1.161861 0.834948 1.098395 -1.098396 0.834948 1.152302 -1.752164 -0.834948 1.152302 -1.752164 0.834948 -1.152302 -2.056165 -0.834948 1.152302 -2.056165 -0.834948 -1.098396 -1.098396 -0.834948 -1.152302 -1.752164 -0.834948 -1.152302 -1.752164 0.834948 -1.098396 -1.098396 0.834948 -1.752165 -1.161861 0.834948 -1.752165 -1.161861 -0.834948 -2.056166 1.161861 -0.834948 -2.056166 -1.161861 -0.834948 -1.752165 1.161861 0.834948 -1.098396 1.098396 0.834948 -1.098396 1.098396 -0.834948 -1.752165 1.161861 -0.834948 -1.152302 1.752164 0.834948 -1.152302 1.752164 -0.834948 2.056166 2.056165 -0.834948 2.056166 -2.056165 -0.834948 -2.056166 -2.056165 -0.834948 -2.056166 2.056165 -0.834948</float_array>
          <technique_common>
            <accessor source="#coz_block_geo-mesh-positions-array" count="128" stride="3">
              <param name="X" type="float"/>
              <param name="Y" type="float"/>
              <param name="Z" type="float"/>
            </accessor>
          </technique_common>
        </source>
        <source id="coz_block_geo-mesh-normals">
          <float_array id="coz_block_geo-mesh-normals-array" count="150">1 0 0 0 0 1 -1 0 0 0 0 -1 0 1 0 0 -1 0 0 0.005423188 -0.9999854 0 -0.9997397 0.02281665 0 0.00701934 -0.9999754 0 0.9991953 -0.04011166 -0.005564212 0 -0.9999846 -0.999554 0 -0.02986514 0.9995818 0 0.02892029 -0.001859068 0 -0.9999983 0.9966177 -0.08217728 0 -0.09662133 0.9953212 0 -0.09662133 -0.9953212 0 0.9966179 0.08217662 0 -0.9966179 0.08217555 0 0.09662133 -0.9953212 0 0.09662133 0.9953212 0 -0.9966179 -0.08217555 0 0.301503 -0.9045396 -0.301503 0.5759004 -0.5830725 -0.5730316 -0.7064949 0.001892149 -0.7077156 -0.5759004 -0.5830725 -0.5730316 0.7045614 -0.709597 0.008087515 0 1 -2.94086e-7 0.5859406 -0.5757166 -0.5702842 0.7102669 0.7038578 0.01025432 0.9045396 0.301503 -0.301503 0.5859406 0.5757166 -0.5702842 -6.4091e-4 -0.7070152 -0.7071983 0 0 -1 0 0 1 0 0 -1 0 0 1 0 0.00701934 -0.9999755 0 0.9991953 -0.0401113 0.9966179 -0.08217662 0 0.9966177 0.08217728 0 -0.996618 0.08217537 0 -0.996618 -0.08217537 0 -0.301503 -0.9045396 -0.301503 0.7064949 0.001892149 -0.7077156 -0.7045614 -0.709597 0.008087515 0.7102669 -0.7038578 0.01025432 0 -1 -2.94086e-7 0.9045396 -0.301503 -0.301503 -6.4091e-4 0.7070152 -0.7071983</float_array>
          <technique_common>
            <accessor source="#coz_block_geo-mesh-normals-array" count="50" stride="3">
              <param name="X" type="float"/>
              <param name="Y" type="float"/>
              <param name="Z" type="float"/>
            </accessor>
          </technique_common>
        </source>
        <source id="coz_block_geo-mesh-map-0">
          <float_array id="coz_block_geo-mesh-map-0-array" count="1512">0.131177 0.90727 0.04784399 0.948936 0.04784399 0.90727 0.162855 0.847597 0.079521 0.93093 0.079521 0.847597 0.149561 0.889438 0.06622797 0.931104 0.06622797 0.889438 0.167945 0.863376 0.08461195 0.946709 0.08461195 0.863376 0.11671 0.884456 0.03337699 0.926123 0.03337699 0.884456 0.130571 0.888886 0.04723799 0.930552 0.04723799 0.888886 0.135773 0.87353 0.05243986 0.956863 0.05243986 0.87353 0.12936 0.90727 0.046027 0.948936 0.046027 0.90727 0.1403689 0.852973 0.05703598 0.936306 0.05703598 0.852973 0.02589792 0.921569 0.109231 0.879903 0.109231 0.921569 1.023864 0.1922309 0.785215 0.100216 1.023864 0.100216 0.502314 0.784904 0.440566 0.815779 0.440566 0.784904 0.750224 0.571858 0.690722 0.637649 0.690722 0.580315 0.811058 0.784904 0.872807 0.815779 0.811058 0.815779 0.150772 0.89863 0.06743896 0.940296 0.06743896 0.89863 0.076631 0.862165 0.159964 0.945498 0.076631 0.945498 0.807557 0.571858 0.862723 0.637649 0.805389 0.637649 0.076631 0.849588 0.159964 0.932921 0.076631 0.932921 0.06577998 0.90042 0.1491129 0.942087 0.06577998 0.942087 0.085734 0.851102 0.169068 0.934435 0.085734 0.934435 0.785215 0.1943449 1.023864 0.07569199 1.023864 0.1943449 0.06499797 0.859204 0.148331 0.942538 0.06499797 0.942538 0.807557 0.485857 0.750224 0.514524 0.750224 0.485857 0.750224 0.514524 0.807557 0.571858 0.750224 0.571858 0.274602 0.485008 0.500763 0.71117 0.274602 0.71117 0.748056 0.637649 0.805389 0.694982 0.748056 0.694982 0.625812 0.784904 0.687561 0.815779 0.625812 0.815779 0.785256 0.123955 1.023864 0.182936 0.785175 0.182936 0.785215 0.193792 1.023864 0.08264696 0.785215 0.08264696 0.277612 0.234246 0.5009 0.267438 0.277612 0.267438 0.811058 0.908402 0.74931 0.939277 0.74931 0.908402 0.687561 0.908402 0.74931 0.939277 0.687561 0.939277 0.05054599 0.224188 0.273946 0.257397 0.05054599 0.257397 0.625812 0.908402 0.564063 0.939277 0.564063 0.908402 0.564063 0.908402 0.502314 0.939277 0.502314 0.908402 0.05225884 0.452125 0.269071 0.484354 0.269071 0.452125 0.440566 0.908402 0.378817 0.939277 0.378817 0.908402 0.750224 0.37119 0.69289 0.399856 0.69289 0.37119 0.279927 0.711204 0.04919797 0.676906 0.04919797 0.711204 0.864891 0.37119 0.807557 0.399856 0.807557 0.37119 0.872807 0.939277 0.934556 0.908402 0.934556 0.939277 0.811058 0.846653 0.74931 0.908402 0.74931 0.846653 0.687561 0.846653 0.74931 0.908402 0.687561 0.908402 0.625812 0.846653 0.564063 0.908402 0.564063 0.846653 0.564063 0.846653 0.502314 0.908402 0.502314 0.846653 0.440566 0.846653 0.378817 0.908402 0.378817 0.846653 0.750224 0.399856 0.69289 0.45719 0.69289 0.399856 0.864891 0.399856 0.807557 0.45719 0.807557 0.399856 0.872807 0.908402 0.934556 0.846653 0.934556 0.908402 0.785215 0.180218 1.023864 0.122645 0.785215 0.122645 0.128683 0.861317 0.04534995 0.902984 0.04534995 0.861317 0.05779784 0.87329 0.141131 0.914957 0.05779784 0.914957 0.785215 0.180216 1.023864 0.132289 0.785215 0.132289 0.159535 0.90553 0.07620096 0.947197 0.07620096 0.90553 0.109401 0.84245 0.02606797 0.884117 0.02606797 0.84245 1.023864 0.180218 0.785215 0.121233 0.785215 0.180218 0.138552 0.876612 0.05521899 0.918279 0.05521899 0.876612 0.149561 0.901712 0.06622797 0.943378 0.06622797 0.901712 1.023864 0.119798 0.785215 0.1802189 0.785215 0.119798 0.1415809 0.920096 0.05824697 0.961762 0.05824697 0.920096 0.040829 0.894137 0.124162 0.935804 0.040829 0.935804 0.277612 0.04414999 0.5009 0.07734197 0.277612 0.07734197 0.811058 0.815779 0.74931 0.846653 0.74931 0.815779 0.687561 0.815779 0.74931 0.846653 0.687561 0.846653 0.05054599 0.03399688 0.273946 0.06720596 0.05054599 0.06720596 0.625812 0.815779 0.564063 0.846653 0.564063 0.815779 0.564063 0.815779 0.502314 0.846653 0.502314 0.815779 0.05225884 0.267542 0.269071 0.299771 0.269071 0.267542 0.440566 0.815779 0.378817 0.846653 0.378817 0.815779 0.750224 0.45719 0.69289 0.485857 0.69289 0.45719 0.279927 0.514773 0.04919797 0.480475 0.04919797 0.514773 0.864891 0.45719 0.807557 0.485857 0.807557 0.45719 0.872807 0.846653 0.934556 0.815779 0.934556 0.846653 0.502314 0.815779 0.502314 0.784904 0.502314 0.784904 0.440566 0.815779 0.502314 0.815779 0.502314 0.815779 0.440566 0.815779 0.440566 0.784904 0.440566 0.815779 0.748056 0.580315 0.690722 0.580315 0.690722 0.580315 0.748056 0.637649 0.750224 0.571858 0.748056 0.580315 0.748056 0.637649 0.690722 0.637649 0.748056 0.637649 0.811058 0.815779 0.811058 0.784904 0.811058 0.815779 0.872807 0.815779 0.872807 0.784904 0.872807 0.784904 0.811058 0.815779 0.872807 0.815779 0.872807 0.815779 0.805389 0.580315 0.805389 0.637649 0.805389 0.637649 0.805389 0.580315 0.862723 0.580315 0.807557 0.571858 0.805389 0.637649 0.862723 0.637649 0.862723 0.637649 0.807557 0.485857 0.750224 0.485857 0.750224 0.485857 0.807557 0.485857 0.807557 0.514524 0.807557 0.485857 0.750224 0.485857 0.750224 0.514524 0.750224 0.514524 0.750224 0.571858 0.750224 0.514524 0.750224 0.571858 0.807557 0.571858 0.807557 0.514524 0.807557 0.514524 0.750224 0.571858 0.807557 0.571858 0.807557 0.571858 0.748056 0.637649 0.748056 0.694982 0.748056 0.694982 0.805389 0.637649 0.748056 0.637649 0.748056 0.637649 0.805389 0.637649 0.805389 0.694982 0.805389 0.637649 0.625812 0.815779 0.625812 0.784904 0.625812 0.815779 0.687561 0.815779 0.687561 0.784904 0.687561 0.784904 0.625812 0.815779 0.687561 0.815779 0.687561 0.815779 0.74931 0.846653 0.811058 0.846653 0.74931 0.846653 0.811058 0.908402 0.811058 0.846653 0.811058 0.846653 0.74931 0.908402 0.811058 0.908402 0.811058 0.908402 0.687561 0.846653 0.687561 0.908402 0.687561 0.908402 0.74931 0.846653 0.687561 0.846653 0.687561 0.846653 0.74931 0.908402 0.687561 0.908402 0.74931 0.908402 0.564063 0.846653 0.625812 0.846653 0.564063 0.846653 0.625812 0.908402 0.625812 0.846653 0.625812 0.846653 0.564063 0.908402 0.625812 0.908402 0.625812 0.908402 0.564063 0.846653 0.502314 0.846653 0.502314 0.846653 0.564063 0.908402 0.502314 0.908402 0.564063 0.908402 0.502314 0.846653 0.502314 0.908402 0.502314 0.908402 0.378817 0.846653 0.440566 0.846653 0.378817 0.846653 0.440566 0.908402 0.440566 0.846653 0.440566 0.846653 0.378817 0.908402 0.440566 0.908402 0.440566 0.908402 0.69289 0.399856 0.750224 0.399856 0.69289 0.399856 0.750224 0.45719 0.750224 0.399856 0.750224 0.399856 0.69289 0.45719 0.750224 0.45719 0.750224 0.45719 0.864891 0.399856 0.807557 0.399856 0.807557 0.399856 0.864891 0.45719 0.807557 0.45719 0.864891 0.45719 0.807557 0.399856 0.807557 0.45719 0.807557 0.45719 0.934556 0.908402 0.872807 0.908402 0.934556 0.908402 0.872807 0.846653 0.872807 0.908402 0.872807 0.908402 0.934556 0.846653 0.872807 0.846653 0.872807 0.846653 0.131177 0.90727 0.131177 0.948936 0.04784399 0.948936 0.162855 0.847597 0.162855 0.93093 0.079521 0.93093 0.149561 0.889438 0.149561 0.931104 0.06622797 0.931104 0.167945 0.863376 0.167945 0.946709 0.08461195 0.946709 0.11671 0.884456 0.11671 0.926123 0.03337699 0.926123 0.130571 0.888886 0.130571 0.930552 0.04723799 0.930552 0.135773 0.87353 0.135773 0.956863 0.05243986 0.956863 0.12936 0.90727 0.12936 0.948936 0.046027 0.948936 0.1403689 0.852973 0.1403689 0.936306 0.05703598 0.936306 0.02589792 0.921569 0.02589792 0.879903 0.109231 0.879903 1.023864 0.1922309 0.785215 0.1922309 0.785215 0.100216 0.502314 0.784904 0.502314 0.815779 0.440566 0.815779 0.750224 0.571858 0.748056 0.637649 0.690722 0.637649 0.811058 0.784904 0.872807 0.784904 0.872807 0.815779 0.150772 0.89863 0.150772 0.940296 0.06743896 0.940296 0.076631 0.862165 0.159964 0.862165 0.159964 0.945498 0.807557 0.571858 0.862723 0.580315 0.862723 0.637649 0.076631 0.849588 0.159964 0.849588 0.159964 0.932921 0.06577998 0.90042 0.1491129 0.90042 0.1491129 0.942087 0.085734 0.851102 0.169068 0.851102 0.169068 0.934435 0.785215 0.1943449 0.785215 0.07569199 1.023864 0.07569199 0.06499797 0.859204 0.148331 0.859204 0.148331 0.942538 0.807557 0.485857 0.807557 0.514524 0.750224 0.514524 0.750224 0.514524 0.807557 0.514524 0.807557 0.571858 0.274602 0.485008 0.500763 0.485008 0.500763 0.71117 0.748056 0.637649 0.805389 0.637649 0.805389 0.694982 0.625812 0.784904 0.687561 0.784904 0.687561 0.815779 0.785256 0.123955 1.023864 0.123955 1.023864 0.182936 0.785215 0.193792 1.023864 0.193792 1.023864 0.08264696 0.277612 0.234246 0.5009 0.234246 0.5009 0.267438 0.811058 0.908402 0.811058 0.939277 0.74931 0.939277 0.687561 0.908402 0.74931 0.908402 0.74931 0.939277 0.05054599 0.224188 0.273946 0.224188 0.273946 0.257397 0.625812 0.908402 0.625812 0.939277 0.564063 0.939277 0.564063 0.908402 0.564063 0.939277 0.502314 0.939277 0.05225884 0.452125 0.05225884 0.484354 0.269071 0.484354 0.440566 0.908402 0.440566 0.939277 0.378817 0.939277 0.750224 0.37119 0.750224 0.399856 0.69289 0.399856 0.279927 0.711204 0.279927 0.676906 0.04919797 0.676906 0.864891 0.37119 0.864891 0.399856 0.807557 0.399856 0.872807 0.939277 0.872807 0.908402 0.934556 0.908402 0.811058 0.846653 0.811058 0.908402 0.74931 0.908402 0.687561 0.846653 0.74931 0.846653 0.74931 0.908402 0.625812 0.846653 0.625812 0.908402 0.564063 0.908402 0.564063 0.846653 0.564063 0.908402 0.502314 0.908402 0.440566 0.846653 0.440566 0.908402 0.378817 0.908402 0.750224 0.399856 0.750224 0.45719 0.69289 0.45719 0.864891 0.399856 0.864891 0.45719 0.807557 0.45719 0.872807 0.908402 0.872807 0.846653 0.934556 0.846653 0.785215 0.180218 1.023864 0.180218 1.023864 0.122645 0.128683 0.861317 0.128683 0.902984 0.04534995 0.902984 0.05779784 0.87329 0.141131 0.87329 0.141131 0.914957 0.785215 0.180216 1.023864 0.180216 1.023864 0.132289 0.159535 0.90553 0.159535 0.947197 0.07620096 0.947197 0.109401 0.84245 0.109401 0.884117 0.02606797 0.884117 1.023864 0.180218 1.023864 0.121233 0.785215 0.121233 0.138552 0.876612 0.138552 0.918279 0.05521899 0.918279 0.149561 0.901712 0.149561 0.943378 0.06622797 0.943378 1.023864 0.119798 1.023864 0.1802189 0.785215 0.1802189 0.1415809 0.920096 0.1415809 0.961762 0.05824697 0.961762 0.040829 0.894137 0.124162 0.894137 0.124162 0.935804 0.277612 0.04414999 0.5009 0.04414999 0.5009 0.07734197 0.811058 0.815779 0.811058 0.846653 0.74931 0.846653 0.687561 0.815779 0.74931 0.815779 0.74931 0.846653 0.05054599 0.03399688 0.273946 0.03399688 0.273946 0.06720596 0.625812 0.815779 0.625812 0.846653 0.564063 0.846653 0.564063 0.815779 0.564063 0.846653 0.502314 0.846653 0.05225884 0.267542 0.05225884 0.299771 0.269071 0.299771 0.440566 0.815779 0.440566 0.846653 0.378817 0.846653 0.750224 0.45719 0.750224 0.485857 0.69289 0.485857 0.279927 0.514773 0.279927 0.480475 0.04919797 0.480475 0.864891 0.45719 0.864891 0.485857 0.807557 0.485857 0.872807 0.846653 0.872807 0.815779 0.934556 0.815779 0.502314 0.815779 0.502314 0.815779 0.502314 0.784904 0.440566 0.815779 0.440566 0.815779 0.502314 0.815779 0.440566 0.815779 0.440566 0.784904 0.440566 0.784904 0.748056 0.580315 0.750224 0.571858 0.690722 0.580315 0.748056 0.637649 0.748056 0.637649 0.750224 0.571858 0.748056 0.637649 0.690722 0.637649 0.690722 0.637649 0.811058 0.815779 0.811058 0.784904 0.811058 0.784904 0.872807 0.815779 0.872807 0.815779 0.872807 0.784904 0.811058 0.815779 0.811058 0.815779 0.872807 0.815779 0.805389 0.580315 0.807557 0.571858 0.805389 0.637649 0.805389 0.580315 0.862723 0.580315 0.862723 0.580315 0.805389 0.637649 0.805389 0.637649 0.862723 0.637649 0.807557 0.485857 0.807557 0.485857 0.750224 0.485857 0.807557 0.485857 0.807557 0.514524 0.807557 0.514524 0.750224 0.485857 0.750224 0.485857 0.750224 0.514524 0.750224 0.571858 0.750224 0.514524 0.750224 0.514524 0.807557 0.571858 0.807557 0.571858 0.807557 0.514524 0.750224 0.571858 0.750224 0.571858 0.807557 0.571858 0.748056 0.637649 0.748056 0.637649 0.748056 0.694982 0.805389 0.637649 0.805389 0.637649 0.748056 0.637649 0.805389 0.637649 0.805389 0.694982 0.805389 0.694982 0.625812 0.815779 0.625812 0.784904 0.625812 0.784904 0.687561 0.815779 0.687561 0.815779 0.687561 0.784904 0.625812 0.815779 0.625812 0.815779 0.687561 0.815779 0.74931 0.846653 0.811058 0.846653 0.811058 0.846653 0.811058 0.908402 0.811058 0.908402 0.811058 0.846653 0.74931 0.908402 0.74931 0.908402 0.811058 0.908402 0.687561 0.846653 0.687561 0.846653 0.687561 0.908402 0.74931 0.846653 0.74931 0.846653 0.687561 0.846653 0.74931 0.908402 0.687561 0.908402 0.687561 0.908402 0.564063 0.846653 0.625812 0.846653 0.625812 0.846653 0.625812 0.908402 0.625812 0.908402 0.625812 0.846653 0.564063 0.908402 0.564063 0.908402 0.625812 0.908402 0.564063 0.846653 0.564063 0.846653 0.502314 0.846653 0.564063 0.908402 0.502314 0.908402 0.502314 0.908402 0.502314 0.846653 0.502314 0.846653 0.502314 0.908402 0.378817 0.846653 0.440566 0.846653 0.440566 0.846653 0.440566 0.908402 0.440566 0.908402 0.440566 0.846653 0.378817 0.908402 0.378817 0.908402 0.440566 0.908402 0.69289 0.399856 0.750224 0.399856 0.750224 0.399856 0.750224 0.45719 0.750224 0.45719 0.750224 0.399856 0.69289 0.45719 0.69289 0.45719 0.750224 0.45719 0.864891 0.399856 0.864891 0.399856 0.807557 0.399856 0.864891 0.45719 0.807557 0.45719 0.807557 0.45719 0.807557 0.399856 0.807557 0.399856 0.807557 0.45719 0.934556 0.908402 0.872807 0.908402 0.872807 0.908402 0.872807 0.846653 0.872807 0.846653 0.872807 0.908402 0.934556 0.846653 0.934556 0.846653 0.872807 0.846653 0.2478307 0.2250474 0.7567158 0.7619307 0.2422311 0.77313 0.1349939 0.1083459 0.9101518 0.9163323 0.1287932 0.8853284 0.1249554 0.08580833 0.9126268 0.8690697 0.1187546 0.8628689 0.1142668 0.0951451 0.8767479 0.8985815 0.8829486 0.1137475 0.8938048 0.8815318 0.136009 0.09311962 0.1236073 0.8815318 0.2478307 0.2250474 0.7679151 0.2082484 0.7567158 0.7619307 0.1349939 0.1083459 0.9101518 0.1145467 0.9101518 0.9163323 0.1249554 0.08580833 0.906426 0.09200912 0.9126268 0.8690697 0.1142668 0.0951451 0.1142668 0.8861799 0.8767479 0.8985815 0.8938048 0.8815318 0.9062063 0.09311962 0.136009 0.09311962</float_array>
          <technique_common>
            <accessor source="#coz_block_geo-mesh-map-0-array" count="756" stride="2">
              <param name="S" type="float"/>
              <param name="T" type="float"/>
            </accessor>
          </technique_common>
        </source>
        <vertices id="coz_block_geo-mesh-vertices">
          <input semantic="POSITION" source="#coz_block_geo-mesh-positions"/>
        </vertices>
        <triangles material="Material_001-material" count="252">
          <input semantic="VERTEX" source="#coz_block_geo-mesh-vertices" offset="0"/>
          <input semantic="NORMAL" source="#coz_block_geo-mesh-normals" offset="1"/>
          <input semantic="TEXCOORD" source="#coz_block_geo-mesh-map-0" offset="2" set="0"/>
          <p>1 0 0 3 0 1 0 0 2 5 1 3 7 1 4 4 1 5 9 2 6 11 2 7 8 2 8 13 3 9 0 3 10 12 3 11 15 4 12 17 4 13 14 4 14 0 5 15 18 5 16 12 5 17 20 1 18 22 1 19 19 1 20 23 5 21 8 5 22 11 5 23 10 3 24 23 3 25 11 3 26 27 4 27 29 4 28 26 4 29 6 1 30 19 1 31 7 1 32 31 6 33 33 6 34 30 6 35 34 7 36 31 7 37 30 7 38 37 8 39 39 8 40 36 8 41 26 2 42 41 2 43 40 2 44 41 3 45 28 3 46 42 3 47 44 9 48 37 9 49 43 9 50 46 3 51 14 3 52 45 3 53 45 0 54 17 0 55 47 0 56 49 1 57 51 1 58 48 1 59 48 1 60 53 1 61 52 1 62 52 1 63 55 1 64 54 1 65 57 10 66 59 10 67 56 10 68 59 11 69 61 11 70 60 11 71 25 3 72 46 3 73 13 3 74 63 12 75 65 12 76 62 12 77 62 13 78 67 13 79 66 13 80 5 1 81 48 1 82 6 1 83 20 1 84 54 1 85 21 1 86 69 4 87 71 4 88 68 4 89 69 4 90 73 4 91 72 4 92 75 0 93 73 0 94 74 0 95 77 0 96 74 0 97 76 0 98 77 0 99 79 0 100 78 0 101 78 5 102 81 5 103 80 5 104 80 5 105 83 5 106 82 5 107 82 5 108 85 5 109 84 5 110 86 2 111 84 2 112 85 2 113 88 2 114 87 2 115 86 2 116 90 2 117 89 2 118 88 2 119 71 4 120 91 4 121 90 4 122 95 14 123 97 14 124 94 14 125 99 15 126 97 15 127 98 15 128 103 16 129 105 16 130 102 16 131 102 17 132 107 17 133 106 17 134 111 18 135 113 18 136 110 18 137 114 19 138 110 19 139 113 19 140 119 20 141 121 20 142 118 20 143 122 21 144 120 21 145 119 21 146 68 4 147 53 4 148 51 4 149 68 4 150 50 4 151 73 4 152 74 0 153 50 0 154 49 0 155 76 0 156 49 0 157 5 0 158 76 0 159 4 0 160 79 0 161 79 5 162 7 5 163 81 5 164 81 5 165 19 5 166 83 5 167 83 5 168 22 5 169 85 5 170 21 2 171 85 2 172 22 2 173 54 2 174 86 2 175 21 2 176 55 2 177 88 2 178 54 2 179 71 4 180 55 4 181 53 4 182 16 4 183 93 4 184 92 4 185 16 4 186 124 4 187 17 4 188 47 0 189 124 0 190 101 0 191 2 0 192 101 0 193 100 0 194 2 0 195 125 0 196 3 0 197 3 5 198 109 5 199 18 5 200 18 5 201 108 5 202 24 5 203 24 5 204 126 5 205 8 5 206 117 2 207 8 2 208 126 2 209 116 2 210 9 2 211 117 2 212 127 2 213 40 2 214 116 2 215 93 4 216 26 4 217 127 4 218 18 2 219 31 2 220 12 2 221 24 3 222 32 3 223 18 3 224 24 22 225 30 23 226 33 24 227 25 0 228 30 0 229 23 0 230 13 5 231 34 5 232 25 5 233 13 3 234 31 25 235 35 26 236 16 2 237 37 2 238 36 2 239 27 0 240 38 0 241 28 0 242 16 3 243 39 3 244 27 3 245 42 4 246 43 4 247 46 4 248 42 0 249 38 0 250 44 0 251 46 2 252 37 2 253 15 2 254 40 3 255 56 3 256 9 3 257 40 5 258 58 5 259 57 5 260 9 4 261 59 4 262 10 4 263 25 4 264 59 4 265 60 4 266 42 5 267 58 5 268 41 5 269 25 2 270 61 2 271 42 2 272 13 27 273 62 27 274 1 27 275 46 0 276 63 0 277 13 0 278 46 3 279 65 28 280 64 29 281 2 30 282 62 31 283 66 32 284 47 5 285 65 5 286 45 5 287 2 3 288 67 3 289 47 3 290 124 1 291 95 1 292 94 1 293 69 0 294 95 0 295 92 0 296 72 3 297 96 3 298 69 3 299 101 4 300 98 4 301 75 4 302 124 1 303 99 1 304 101 1 305 72 33 306 98 33 307 97 33 308 125 34 309 103 34 310 102 34 311 77 5 312 103 5 313 100 5 314 78 3 315 104 3 316 77 3 317 125 1 318 106 1 319 109 1 320 78 3 321 107 3 322 105 3 323 109 0 324 107 0 325 80 0 326 126 1 327 111 1 328 110 1 329 82 2 330 111 2 331 108 2 332 84 3 333 112 3 334 82 3 335 84 35 336 114 35 337 113 35 338 117 5 339 114 5 340 87 5 341 126 1 342 115 1 343 117 1 344 91 3 345 118 3 346 89 3 347 127 36 348 121 36 349 120 36 350 89 4 351 121 4 352 116 4 353 91 3 354 122 3 355 119 3 356 93 2 357 122 2 358 70 2 359 127 1 360 123 1 361 93 1 362 1 0 363 2 0 364 3 0 365 5 1 366 6 1 367 7 1 368 9 2 369 10 2 370 11 2 371 13 3 372 1 3 373 0 3 374 15 4 375 16 4 376 17 4 377 0 5 378 3 5 379 18 5 380 20 1 381 21 1 382 22 1 383 23 5 384 24 5 385 8 5 386 10 3 387 25 3 388 23 3 389 27 4 390 28 4 391 29 4 392 6 1 393 20 1 394 19 1 395 31 6 396 32 6 397 33 6 398 34 7 399 35 7 400 31 7 401 37 37 402 38 37 403 39 37 404 26 2 405 29 2 406 41 2 407 41 3 408 29 3 409 28 3 410 44 38 411 38 38 412 37 38 413 46 3 414 15 3 415 14 3 416 45 0 417 14 0 418 17 0 419 49 1 420 50 1 421 51 1 422 48 1 423 51 1 424 53 1 425 52 1 426 53 1 427 55 1 428 57 10 429 58 10 430 59 10 431 59 11 432 58 11 433 61 11 434 25 3 435 42 3 436 46 3 437 63 12 438 64 12 439 65 12 440 62 13 441 65 13 442 67 13 443 5 1 444 49 1 445 48 1 446 20 1 447 52 1 448 54 1 449 69 4 450 70 4 451 71 4 452 69 4 453 68 4 454 73 4 455 75 0 456 72 0 457 73 0 458 77 0 459 75 0 460 74 0 461 77 0 462 76 0 463 79 0 464 78 5 465 79 5 466 81 5 467 80 5 468 81 5 469 83 5 470 82 5 471 83 5 472 85 5 473 86 2 474 87 2 475 84 2 476 88 2 477 89 2 478 87 2 479 90 2 480 91 2 481 89 2 482 71 4 483 70 4 484 91 4 485 95 39 486 96 39 487 97 39 488 99 15 489 94 15 490 97 15 491 103 16 492 104 16 493 105 16 494 102 40 495 105 40 496 107 40 497 111 41 498 112 41 499 113 41 500 114 19 501 115 19 502 110 19 503 119 20 504 120 20 505 121 20 506 122 42 507 123 42 508 120 42 509 68 4 510 71 4 511 53 4 512 68 4 513 51 4 514 50 4 515 74 0 516 73 0 517 50 0 518 76 0 519 74 0 520 49 0 521 76 0 522 5 0 523 4 0 524 79 5 525 4 5 526 7 5 527 81 5 528 7 5 529 19 5 530 83 5 531 19 5 532 22 5 533 21 2 534 86 2 535 85 2 536 54 2 537 88 2 538 86 2 539 55 2 540 90 2 541 88 2 542 71 4 543 90 4 544 55 4 545 16 4 546 27 4 547 93 4 548 16 4 549 92 4 550 124 4 551 47 0 552 17 0 553 124 0 554 2 0 555 47 0 556 101 0 557 2 0 558 100 0 559 125 0 560 3 5 561 125 5 562 109 5 563 18 5 564 109 5 565 108 5 566 24 5 567 108 5 568 126 5 569 117 2 570 9 2 571 8 2 572 116 2 573 40 2 574 9 2 575 127 2 576 26 2 577 40 2 578 93 4 579 27 4 580 26 4 581 18 43 582 32 44 583 31 25 584 24 3 585 33 3 586 32 3 587 24 0 588 23 0 589 30 0 590 25 3 591 34 45 592 30 23 593 13 5 594 35 5 595 34 5 596 13 2 597 12 2 598 31 2 599 16 2 600 15 2 601 37 2 602 27 0 603 39 0 604 38 0 605 16 3 606 36 3 607 39 3 608 42 4 609 44 4 610 43 4 611 42 0 612 28 0 613 38 0 614 46 2 615 43 2 616 37 2 617 40 3 618 57 3 619 56 3 620 40 5 621 41 5 622 58 5 623 9 4 624 56 4 625 59 4 626 25 4 627 10 4 628 59 4 629 42 5 630 61 5 631 58 5 632 25 2 633 60 2 634 61 2 635 13 3 636 63 46 637 62 31 638 46 0 639 64 0 640 63 0 641 46 47 642 45 47 643 65 47 644 2 4 645 1 4 646 62 4 647 47 48 648 67 49 649 65 28 650 2 3 651 66 3 652 67 3 653 124 1 654 92 1 655 95 1 656 69 0 657 96 0 658 95 0 659 72 3 660 97 3 661 96 3 662 101 4 663 99 4 664 98 4 665 124 34 666 94 34 667 99 34 668 72 3 669 75 3 670 98 3 671 125 1 672 100 1 673 103 1 674 77 5 675 104 5 676 103 5 677 78 33 678 105 33 679 104 33 680 125 1 681 102 1 682 106 1 683 78 3 684 80 3 685 107 3 686 109 0 687 106 0 688 107 0 689 126 1 690 108 1 691 111 1 692 82 2 693 112 2 694 111 2 695 84 3 696 113 3 697 112 3 698 84 3 699 87 3 700 114 3 701 117 5 702 115 5 703 114 5 704 126 36 705 110 36 706 115 36 707 91 35 708 119 35 709 118 35 710 127 1 711 116 1 712 121 1 713 89 4 714 118 4 715 121 4 716 91 3 717 70 3 718 122 3 719 93 2 720 123 2 721 122 2 722 127 1 723 120 1 724 123 1 725 6 1 726 52 1 727 20 1 728 92 4 729 70 4 730 69 4 731 100 0 732 75 0 733 77 0 734 109 5 735 82 5 736 108 5 737 89 2 738 117 2 739 87 2 740 6 1 741 48 1 742 52 1 743 92 4 744 93 4 745 70 4 746 100 0 747 101 0 748 75 0 749 109 5 750 80 5 751 82 5 752 89 2 753 116 2 754 117 2 755</p>
        </triangles>
      </mesh>
    </geometry>
  </library_geometries>
  <library_controllers/>
  <library_visual_scenes>
    <visual_scene id="Scene" name="Scene">
      <node id="Camera" name="Camera" type="NODE">
        <matrix sid="transform">0.6859207 -0.3240135 0.6515582 7.481132 0.7276763 0.3054208 -0.6141704 -6.50764 0 0.8953956 0.4452714 5.343665 0 0 0 1</matrix>
        <instance_camera url="#Camera-camera"/>
      </node>
      <node id="Lamp" name="Lamp" type="NODE">
        <matrix sid="transform">-0.2908646 -0.7711008 0.5663932 4.076245 0.9551712 -0.1998834 0.2183912 1.005454 -0.05518906 0.6045247 0.7946723 5.903862 0 0 0 1</matrix>
        <instance_light url="#Lamp-light"/>
      </node>
      <node id="coz_block_geo" name="coz_block_geo" type="NODE">
        <matrix sid="transform">0.00999999 0 0 0.007399717 0 0.00999999 0 0.00107454 0 0 0.00999999 0.004026321 0 0 0 1</matrix>
        <instance_geometry url="#coz_block_geo-mesh" name="coz_block_geo">
          <bind_material>
            <technique_common>
              <instance_material symbol="Material_001-material" target="#Material_001-material"/>
            </technique_common>
          </bind_material>
        </instance_geometry>
      </node>
    </visual_scene>
  </library_visual_scenes>
  <scene>
    <instance_visual_scene url="#Scene"/>
  </scene>
</COLLADA>